Ustawienia,,Wartość,Amortyzacja,Zakupiono:,Pocz. Amort.,Koniec,VAT naliczony,,,,,,,,,,,,,,,,,,,,,,
,Środek A,"10 000,00",24,1-maj-2013,1-maj-2013,1-maj-2015,23%,,,,,,,,,,,,,,,,,,,,,,
,Środek B,"15 000,00",20,1-lip-2013,1-lip-2013,1-mar-2015,23%,,,,,,,,,,,,,,,,,,,,,,
,,,,,,,,,,,,,,,,,,,,,,,,,,,,,
Daty,,BO,1-sty-2013,1-lut-2013,1-mar-2013,1-kwi-2013,1-maj-2013,1-cze-2013,1-lip-2013,1-sie-2013,1-wrz-2013,1-paź-2013,1-lis-2013,1-gru-2013,1-sty-2014,1-lut-2014,1-mar-2014,1-kwi-2014,1-maj-2014,1-cze-2014,1-lip-2014,1-sie-2014,1-wrz-2014,1-paź-2014,1-lis-2014,1-gru-2014,2013,2014,2015
Koszt,,,,,,,,,,,,,,,,,,,,,,,,,,,,,
,Środek A,0,0,0,0,0,10 000,0,0,0,0,0,0,0,0,0,0,0,0,0,0,0,0,0,0,0,10 000,0,0
,Środek B,0,0,0,0,0,0,0,15 000,0,0,0,0,0,0,0,0,0,0,0,0,0,0,0,0,0,15 000,0,0
Suma:,,0,0,0,0,0,10 000,0,15 000,0,0,0,0,0,0,0,0,0,0,0,0,0,0,0,0,0,25 000,0,0
,,,,,,,,,,,,,,,,,,,,,,,,,,,,,
VAT naliczony,,,,,,,,,,,,,,,,,,,,,,,,,,,,,
,Środek A,0,0,0,0,0,2 300,0,0,0,0,0,0,0,0,0,0,0,0,0,0,0,0,0,0,0,2 300,0,0
,Środek B,0,0,0,0,0,0,0,3 450,0,0,0,0,0,0,0,0,0,0,0,0,0,0,0,0,0,3 450,0,0
Suma:,,0,0,0,0,0,2 300,0,3 450,0,0,0,0,0,0,0,0,0,0,0,0,0,0,0,0,0,5 750,0,0
,,,,,,,,,,,,,,,,,,,,,,,,,,,,,
Numerowanie amortyzacji,,,,,,,,,,,,,,,,,,,,,,,,,,,,,
,Środek A,0,,,,,1,2,3,4,5,6,7,8,9,10,11,12,13,14,15,16,17,18,19,20,,,36
,Środek B,0,,,,,,,1,2,3,4,5,6,7,8,9,10,11,12,13,14,15,16,17,18,,,36
Amortyzacja,,,,,,,,,,,,,,,,,,,,,,,,,,,,,
,Środek A,,0,0,0,0,417,417,417,417,417,417,417,417,417,417,417,417,417,417,417,417,417,417,417,417,3 333,5 000,1 667
,Środek B,,0,0,0,0,0,0,750,750,750,750,750,750,750,750,750,750,750,750,750,750,750,750,750,750,4 500,9 000,1 500
Suma:,,,0,0,0,0,417,417,1 167,1 167,1 167,1 167,1 167,1 167,1 167,1 167,1 167,1 167,1 167,1 167,1 167,1 167,1 167,1 167,1 167,1 167,7 833,14 000,3 167
,,,,,,,,,,,,,,,,,,,,,,,,,,,,,
Umorzenie,,,,,,,,,,,,,,,,,,,,,,,,,,,,,
,Środek A,,,,,,417,833,1 250,1 667,2 083,2 500,2 917,3 333,3 750,4 167,4 583,5 000,5 417,5 833,6 250,6 667,7 083,7 500,7 917,8 333,3 333,8 333,10 000
,Środek B,,,,,,,,750,1 500,2 250,3 000,3 750,4 500,5 250,6 000,6 750,7 500,8 250,9 000,9 750,10 500,11 250,12 000,12 750,13 500,4 500,13 500,15 000
Suma:,,,0,0,0,0,417,833,2 000,3 167,4 333,5 500,6 667,7 833,9 000,10 167,11 333,12 500,13 667,14 833,16 000,17 167,18 333,19 500,20 667,21 833,7 833,21 833,25 000
,,,,,,,,,,,,,,,,,,,,,,,,,,,,,
Wartość księgowa,,,,,,,,,,,,,,,,,,,,,,,,,,,,,
,Środek A,,,,,,9 583,9 167,8 750,8 333,7 917,7 500,7 083,6 667,6 250,5 833,5 417,5 000,4 583,4 167,3 750,3 333,2 917,2 500,2 083,1 667,6 667,1 667,0
,Środek B,,,,,,,,14 250,13 500,12 750,12 000,11 250,10 500,9 750,9 000,8 250,7 500,6 750,6 000,5 250,4 500,3 750,3 000,2 250,1 500,10 500,1 500,0
Suma:,,,0,0,0,0,9 583,9 167,23 000,21 833,20 667,19 500,18 333,17 167,16 000,14 833,13 667,12 500,11 333,10 167,9 000,7 833,6 667,5 500,4 333,3 167,17 167,3 167,0